\relax 
\@writefile{toc}{\contentsline {section}{\numberline {1}Introduction}{1}}
\newlabel{introduction}{{1}{1}}
\citation{brink2011qualitative}
\citation{brink2013plume}
\citation{brink2014boundary}
\citation{rproject}
\citation{pebesma2005classes}
\@writefile{toc}{\contentsline {section}{\numberline {2}Requirements}{2}}
\newlabel{requirements}{{2}{2}}
\@writefile{toc}{\contentsline {section}{\numberline {3}Implemented functions}{3}}
\newlabel{functionality}{{3}{3}}
\@writefile{toc}{\contentsline {subsection}{\numberline {3.1}Basic mobile sensor functions}{3}}
\@writefile{toc}{\contentsline {subsection}{\numberline {3.2}Multiple mobile sensors}{4}}
\newlabel{multiple}{{3.2}{4}}
\@writefile{toc}{\contentsline {subsection}{\numberline {3.3}Integration of static sensors}{5}}
\@writefile{toc}{\contentsline {subsection}{\numberline {3.4}Plot functions}{6}}
\@writefile{toc}{\contentsline {subsection}{\numberline {3.5}Sensor movement algorithms}{6}}
\@writefile{toc}{\contentsline {subsubsection}{\numberline {3.5.1}Non-adaptive sensor movement}{6}}
\citation{marques2002olfaction}
\citation{li2001tracking}
\citation{ishida2001plume}
\citation{farrell2003chemical}
\citation{lochmatter2009tracking}
\providecommand*\caption@xref[2]{\@setref\relax\@undefined{#1}}
\newlabel{fig:plotmobisensPs}{{1a}{7}}
\newlabel{sub@fig:plotmobisensPs}{{a}{7}}
\newlabel{fig:plotmobisensBwSr}{{1b}{7}}
\newlabel{sub@fig:plotmobisensBwSr}{{b}{7}}
\@writefile{lof}{\contentsline {figure}{\numberline {1}{\ignorespaces mobisens trajectory plots with static sensors.\relax }}{7}}
\newlabel{fig:staticSensorsPlots}{{1}{7}}
\@writefile{toc}{\contentsline {subsubsection}{\numberline {3.5.2}Bio-inspired search algorithms}{7}}
\citation{vergassola2007infotaxis}
\citation{russell2003comparison}
\citation{dhariwal2004bacterium}
\citation{russell2004robotic}
\citation{holland1996some}
\@writefile{lof}{\contentsline {figure}{\numberline {2}{\ignorespaces Sensor trajectory following a space filling curve.\relax }}{8}}
\newlabel{sfc}{{2}{8}}
\citation{ferri2009spiral}
\citation{ferri2009spiral}
\citation{russell2004robotic}
\citation{russell2004robotic}
\@writefile{loa}{\contentsline {algorithm}{\numberline {1}{\ignorespaces E. Coli bacteria algorithm\relax }}{9}}
\newlabel{ecoli}{{1}{9}}
\newlabel{eq:pi}{{1}{9}}
\citation{brink2014boundary}
\citation{brink2014boundary}
\@writefile{loa}{\contentsline {algorithm}{\numberline {2}{\ignorespaces Moth spiral algorithm\relax }}{10}}
\newlabel{spiral}{{2}{10}}
\@writefile{loa}{\contentsline {algorithm}{\numberline {3}{\ignorespaces Planarian worm algorithm\relax }}{10}}
\newlabel{worm}{{3}{10}}
\citation{brink2014boundary}
\citation{brink2013plume}
\@writefile{toc}{\contentsline {subsubsection}{\numberline {3.5.3}Plume boundary tracking and estimation}{11}}
\@writefile{toc}{\contentsline {subsubsection}{\numberline {3.5.4}Plume tracking}{11}}
\@writefile{toc}{\contentsline {section}{\numberline {4}Scenarios}{11}}
\newlabel{scenarios}{{4}{11}}
\@writefile{loa}{\contentsline {algorithm}{\numberline {4}{\ignorespaces Boundary tracking and estimation\relax }}{12}}
\newlabel{boundaryTracking}{{4}{12}}
\@writefile{loa}{\contentsline {algorithm}{\numberline {5}{\ignorespaces Plume tracking\relax }}{13}}
\newlabel{plumeTracking}{{5}{13}}
\@writefile{toc}{\contentsline {subsection}{\numberline {4.1}Scenario 1: Locating the source of toxic gas release}{14}}
\newlabel{scenario1}{{4.1}{14}}
\newlabel{fig:bacteria}{{3a}{17}}
\newlabel{sub@fig:bacteria}{{a}{17}}
\newlabel{fig:spiral}{{3b}{17}}
\newlabel{sub@fig:spiral}{{b}{17}}
\newlabel{fig:planarian}{{3c}{17}}
\newlabel{sub@fig:planarian}{{c}{17}}
\@writefile{lof}{\contentsline {figure}{\numberline {3}{\ignorespaces Sensor trajectories following chemotaxis source localization algorithms.\relax }}{17}}
\newlabel{fig:chemotaxis}{{3}{17}}
\@writefile{toc}{\contentsline {subsection}{\numberline {4.2}Scenario 2: Estimating the extent of a toxic gas plume}{18}}
\newlabel{scenario2}{{4.2}{18}}
\citation{brink2014boundary}
\@writefile{toc}{\contentsline {subsection}{\numberline {4.3}Scenario 3: Tracking a moving plume}{19}}
\newlabel{scenario3}{{4.3}{19}}
\@writefile{lof}{\contentsline {figure}{\numberline {4}{\ignorespaces Sensor trajectory tracking the boundary of a moving plume.\relax }}{20}}
\newlabel{fig:btexample}{{4}{20}}
\@writefile{toc}{\contentsline {section}{\numberline {5}Discussion}{21}}
\newlabel{discussion}{{5}{21}}
\@writefile{lof}{\contentsline {figure}{\numberline {5}{\ignorespaces Sensor trajectory tracking a moving plume with cardinal wind direction and the range of possible plume speed as input.\relax }}{22}}
\newlabel{fig:ptexample}{{5}{22}}
\@writefile{lof}{\contentsline {figure}{\numberline {6}{\ignorespaces Sensor trajectory tracking a moving plume with the plume model and the range of possible plume speed as input.\relax }}{23}}
\newlabel{fig:ptexample2}{{6}{23}}
\@writefile{lof}{\contentsline {figure}{\numberline {7}{\ignorespaces Sensor trajectory tracking a moving plume with the range of possible plume speed as input.\relax }}{24}}
\newlabel{fig:ptexample3}{{7}{24}}
\bibstyle{plainnat}
\bibdata{references}
\bibcite{brink2011qualitative}{{1}{2011}{{Brink}}{{}}}
\bibcite{brink2014boundary}{{2}{2014}{{Brink}}{{}}}
\bibcite{brink2013plume}{{3}{2013}{{Brink and Pebesma}}{{}}}
\bibcite{dhariwal2004bacterium}{{4}{2004}{{Dhariwal et~al.}}{{Dhariwal, Sukhatme, and Requicha}}}
\@writefile{toc}{\contentsline {section}{\numberline {6}Conclusion}{25}}
\newlabel{conclusion}{{6}{25}}
\bibcite{farrell2003chemical}{{5}{2003}{{Farrell et~al.}}{{Farrell, Pang, Li, and Arrieta}}}
\bibcite{ferri2009spiral}{{6}{2009}{{Ferri et~al.}}{{Ferri, Caselli, Mattoli, Mondini, Mazzolai, and Dario}}}
\bibcite{holland1996some}{{7}{1996}{{Holland and Melhuish}}{{}}}
\bibcite{ishida2001plume}{{8}{2001}{{Ishida et~al.}}{{Ishida, Nakamoto, Moriizumi, Kikas, and Janata}}}
\bibcite{li2001tracking}{{9}{2001}{{Li et~al.}}{{Li, Farrell, Card{\'e}, et~al.}}}
\bibcite{lochmatter2009tracking}{{10}{2009}{{Lochmatter and Martinoli}}{{}}}
\bibcite{marques2002olfaction}{{11}{2002}{{Marques et~al.}}{{Marques, Nunes, and de~Almeida}}}
\bibcite{pebesma2005classes}{{12}{2005}{{Pebesma and Bivand}}{{}}}
\bibcite{rproject}{{13}{2013}{{R Core Team}}{{}}}
\bibcite{russell2004robotic}{{14}{2004}{{Russell}}{{}}}
\bibcite{russell2003comparison}{{15}{2003}{{Russell et~al.}}{{Russell, Bab-Hadiashar, Shepherd, and Wallace}}}
\bibcite{vergassola2007infotaxis}{{16}{2007}{{Vergassola et~al.}}{{Vergassola, Villermaux, and Shraiman}}}
\newlabel{lastpage}{{6}{26}}
